<?xml version="1.0" encoding="UTF-8" standalone="no"?>
<svg
   height="24"
   viewBox="0 -960 960 960"
   width="24"
   version="1.1"
   id="svg8431"
   sodipodi:docname="cloud_view.svg"
   inkscape:version="1.2.2 (b0a8486541, 2022-12-01)"
   inkscape:export-filename="../cloud_view_blue_120px.png"
   inkscape:export-xdpi="480"
   inkscape:export-ydpi="480"
   xmlns:inkscape="http://www.inkscape.org/namespaces/inkscape"
   xmlns:sodipodi="http://sodipodi.sourceforge.net/DTD/sodipodi-0.dtd"
   xmlns="http://www.w3.org/2000/svg"
   xmlns:svg="http://www.w3.org/2000/svg">
  <defs
     id="defs8435" />
  <sodipodi:namedview
     id="namedview8433"
     pagecolor="#ffffff"
     bordercolor="#666666"
     borderopacity="1.0"
     inkscape:showpageshadow="2"
     inkscape:pageopacity="0.0"
     inkscape:pagecheckerboard="0"
     inkscape:deskcolor="#d1d1d1"
     showgrid="false"
     inkscape:zoom="33.416667"
     inkscape:cx="12.044888"
     inkscape:cy="12"
     inkscape:window-width="1920"
     inkscape:window-height="1011"
     inkscape:window-x="0"
     inkscape:window-y="0"
     inkscape:window-maximized="1"
     inkscape:current-layer="svg8431" />
  <g
     id="g9033">
    <path
       id="path8429"
       d="m 480,-800 c -63.33327,0 -120.00005,19.03129 -170,57.03125 -49.99995,37.99996 -83.33335,87.6511 -100,148.98437 -50.66662,11.33333 -91.63545,37.30213 -122.96875,77.96876 C 55.697948,-475.349 40,-429.0312 40,-377.03125 c 0,60.66661 21.531293,112.06254 64.53125,154.0625 C 147.53121,-180.96879 199.33339,-160 260,-160 h 8.51562 v -74.53125 c 0,-2.14067 2.10442,-3.3708 2.26563,-5.46875 H 260 c -38.66663,0 -71.65107,-13.68232 -98.98438,-41.01562 C 133.68232,-308.34893 120,-341.33337 120,-380 c 0,-38.66663 13.68232,-71.65107 41.01562,-98.98438 C 188.34893,-506.31768 221.33337,-520 260,-520 h 20 c 0,-55.33328 19.51566,-102.48441 58.51562,-141.48438 C 377.51559,-700.48434 424.66672,-720 480,-720 c 55.33328,0 102.48441,19.51566 141.48438,58.51562 C 660.48434,-622.48441 680,-575.33328 680,-520 v 80 h 60 c 27.99997,0 51.68231,9.65106 71.01562,28.98438 C 830.34894,-391.68231 840,-367.99997 840,-340 c 0,11.48629 -0.62831,20.23162 -3.88181,30.25945 55.43769,61.56159 0.46421,0.552 55.52243,61.61555 C 908.47447,-275.58637 920,-305.32413 920,-340 920,-385.99995 904.86455,-426.13545 874.53125,-460.46875 844.19795,-494.80205 805.99995,-514.66667 760,-520 760,-597.99992 732.8489,-664.18235 678.51562,-718.51562 624.18235,-772.8489 557.99992,-800 480,-800 Z"
       sodipodi:nodetypes="sscsssscscssssscsssscsssccsscss"
       style="fill:#0e1e46;fill-opacity:1" />
    <path
       d="m 579.37905,-105.89329 c 39.33333,0 75.83333,-9 109.5,-27 33.66667,-18 60.5,-42.33333 80.5,-73 -20,-30.66667 -46.83333,-55 -80.5,-73 -33.66667,-18 -70.16667,-27 -109.5,-27 -39.33333,0 -75.83333,9 -109.5,27 -33.66667,18 -60.5,42.33333 -80.5,73 20,30.66667 46.83333,55 80.5,73 33.66667,18 70.16667,27 109.5,27 z m 0,80.000004 c -64,0 -121.16667,-16.83334 -171.5,-50.5 -50.33333,-33.666674 -86.5,-76.833334 -108.5,-129.500004 22,-52.66667 58.16667,-95.83333 108.5,-129.5 50.33333,-33.66667 107.5,-50.5 171.5,-50.5 64,0 121.16667,16.83333 171.5,50.5 50.33334,33.66667 86.50004,76.83333 108.50004,129.5 -22,52.66667 -58.1667,95.83333 -108.50004,129.500004 -50.33333,33.66666 -107.5,50.5 -171.5,50.5 z m 0,-120.000004 c -16.66667,0 -30.83333,-5.83333 -42.5,-17.5 -11.66667,-11.66667 -17.5,-25.83333 -17.5,-42.5 0,-16.66667 5.83333,-30.83333 17.5,-42.5 11.66667,-11.66667 25.83333,-17.5 42.5,-17.5 16.66667,0 30.83333,5.83333 42.5,17.5 11.66667,11.66667 17.5,25.83333 17.5,42.5 0,16.66667 -5.83333,30.83333 -17.5,42.5 -11.66667,11.66667 -25.83333,17.5 -42.5,17.5 z"
       id="path8403"
       sodipodi:nodetypes="sscssscsssscssscsssssssssss"
       style="fill:#0e1e46;fill-opacity:1" />
  </g>
</svg>
